…
``` r
trips_data %>% 
  select(usertype, gender, age_category, tripduration) %>% 
  group_by(usertype, gender, age_category) %>%
  summarise(mean_duration = mean(tripduration), 
            median_duration = median(tripduration), 
            minimum = min(tripduration),
            maximum = max(tripduration))
```

    ## `summarise()` has grouped output by 'usertype', 'gender'. You can override
    ## using the `.groups` argument.

    ## # A tibble: 28 × 7
    ## # Groups:   usertype, gender [6]
    ##    usertype gender age_category mean_duration median_duration minimum maximum
    ##    <chr>    <chr>  <fct>                <dbl>           <dbl>   <dbl>   <dbl>
    ##  1 Casual   Female Children             2490.           1706.      69   93370
    ##  2 Casual   Female YA                   2979.           1496       61 6629854
    ##  3 Casual   Female Adults               3533.           1713       61 6165373
    ##  4 Casual   Female Seniors              4137.           2245       97  849010
    ##  5 Casual   Female <NA>                 1949            1949     1949    1949
    ##  6 Casual   Male   Children             3523.           1485       61  855830
    ##  7 Casual   Male   YA                   2602.           1165       61 7420632
    ##  8 Casual   Male   Adults               2770.           1419       61 6951586
    ##  9 Casual   Male   Seniors              3363.           2104.      70  230240
    ## 10 Casual   Male   <NA>                  351             351      351     351
    ## # … with 18 more rows
…
